^C:\USERS\ASUS\DESKTOP\FACULTATE\SDD\TEMA_SEMINAR6\TEMA_SEMINAR6\SOURCE.CPP
C:\USERS\ASUS\DESKTOP\FACULTATE\SDD\TEMA_SEMINAR6\TEMA_SEMINAR6\DEBUG\VC141.PDB
C:\USERS\ASUS\DESKTOP\FACULTATE\SDD\TEMA_SEMINAR6\TEMA_SEMINAR6\DEBUG\VC141.IDB
C:\USERS\ASUS\DESKTOP\FACULTATE\SDD\TEMA_SEMINAR6\TEMA_SEMINAR6\DEBUG\SOURCE.OBJ
