^C:\USERS\ASUS\DESKTOP\FACULTATE\SDD\SEMINAR4\SEMINAR4\SOURCE.CPP
C:\USERS\ASUS\DESKTOP\FACULTATE\SDD\SEMINAR4\SEMINAR4\DEBUG\VC141.PDB
C:\USERS\ASUS\DESKTOP\FACULTATE\SDD\SEMINAR4\SEMINAR4\DEBUG\VC141.IDB
C:\USERS\ASUS\DESKTOP\FACULTATE\SDD\SEMINAR4\SEMINAR4\DEBUG\SOURCE.OBJ
