^C:\USERS\ASUS\DESKTOP\FACULTATE\SDD\SEMINAR4\SEMINAR4\DEBUG\SOURCE.OBJ
C:\USERS\ASUS\DESKTOP\FACULTATE\SDD\SEMINAR4\DEBUG\SEMINAR4.EXE
C:\USERS\ASUS\DESKTOP\FACULTATE\SDD\SEMINAR4\DEBUG\SEMINAR4.ILK
C:\USERS\ASUS\DESKTOP\FACULTATE\SDD\SEMINAR4\DEBUG\SEMINAR4.PDB
