10
1
Java
03-06 13:00
Furtuna Titus
100
2
POO
10-06 10:30
Boja Catalin
150
3
Structuri de Date
16-06 13:00
Popa Marius
170
4
Analiza
07-06 09:00
Popescu Ionel
200
5
Algebra
25-06 13:30
Georgescu Marcel
130
6
PAW
21-06 08:00
Smeureanu Ion
200
7
Macroeconomie
06-06 11:00
Marinescu Daniela
160
8
Microeconomie
13-06 16:00
Marinescu Daniela
150
9
Statistica
18-06 11:00
Stanescu George
120
10
Economie
22-06 13:30
Popescu Marcel
140